[api-updater (non-obsolete-error-filter)] 8/24/2021 11:33:46 AM : Starting /Applications/Unity/Hub/Editor/2020.3.16f1/Unity.app/Contents/Tools/ScriptUpdater/APIUpdater.NonObsoleteApiUpdaterDetector.exe
[api-updater (non-obsolete-error-filter)] 
----------------------------------
jit/startup time      : 138.294ms
moved types parse time: 53ms
candidates parse time : 1ms
C# parse time         : 267ms
candidates check time : 32ms
console write time    : 0ms

[api-updater (non-obsolete-error-filter)] 8/24/2021 11:58:51 AM : Starting /Applications/Unity/Hub/Editor/2020.3.16f1/Unity.app/Contents/Tools/ScriptUpdater/APIUpdater.NonObsoleteApiUpdaterDetector.exe
[api-updater (non-obsolete-error-filter)] 
----------------------------------
jit/startup time      : 108.608ms
moved types parse time: 54ms
candidates parse time : 1ms
C# parse time         : 249ms
candidates check time : 33ms
console write time    : 0ms

[api-updater (non-obsolete-error-filter)] 8/24/2021 11:59:52 AM : Starting /Applications/Unity/Hub/Editor/2020.3.16f1/Unity.app/Contents/Tools/ScriptUpdater/APIUpdater.NonObsoleteApiUpdaterDetector.exe
[api-updater (non-obsolete-error-filter)] 
----------------------------------
jit/startup time      : 38.056ms
moved types parse time: 45ms
candidates parse time : 1ms
C# parse time         : 197ms
candidates check time : 32ms
console write time    : 0ms

[api-updater (non-obsolete-error-filter)] 8/24/2021 12:00:14 PM : Starting /Applications/Unity/Hub/Editor/2020.3.16f1/Unity.app/Contents/Tools/ScriptUpdater/APIUpdater.NonObsoleteApiUpdaterDetector.exe
[api-updater (non-obsolete-error-filter)] 
----------------------------------
jit/startup time      : 37.215ms
moved types parse time: 44ms
candidates parse time : 1ms
C# parse time         : 198ms
candidates check time : 31ms
console write time    : 0ms

[api-updater (non-obsolete-error-filter)] 8/24/2021 12:37:40 PM : Starting /Applications/Unity/Hub/Editor/2020.3.16f1/Unity.app/Contents/Tools/ScriptUpdater/APIUpdater.NonObsoleteApiUpdaterDetector.exe
[api-updater (non-obsolete-error-filter)] 
----------------------------------
jit/startup time      : 40.858ms
moved types parse time: 44ms
candidates parse time : 1ms
C# parse time         : 200ms
candidates check time : 28ms
console write time    : 0ms

[api-updater (non-obsolete-error-filter)] 8/24/2021 12:42:18 PM : Starting /Applications/Unity/Hub/Editor/2020.3.16f1/Unity.app/Contents/Tools/ScriptUpdater/APIUpdater.NonObsoleteApiUpdaterDetector.exe
[api-updater (non-obsolete-error-filter)] 
----------------------------------
jit/startup time      : 40.839ms
moved types parse time: 46ms
candidates parse time : 1ms
C# parse time         : 200ms
candidates check time : 29ms
console write time    : 0ms

[api-updater (non-obsolete-error-filter)] 8/24/2021 12:54:25 PM : Starting /Applications/Unity/Hub/Editor/2020.3.16f1/Unity.app/Contents/Tools/ScriptUpdater/APIUpdater.NonObsoleteApiUpdaterDetector.exe
[api-updater (non-obsolete-error-filter)] 
----------------------------------
jit/startup time      : 42.493ms
moved types parse time: 46ms
candidates parse time : 1ms
C# parse time         : 204ms
candidates check time : 30ms
console write time    : 0ms

[api-updater (non-obsolete-error-filter)] 8/24/2021 12:57:23 PM : Starting /Applications/Unity/Hub/Editor/2020.3.16f1/Unity.app/Contents/Tools/ScriptUpdater/APIUpdater.NonObsoleteApiUpdaterDetector.exe
[api-updater (non-obsolete-error-filter)] 
----------------------------------
jit/startup time      : 41.917ms
moved types parse time: 45ms
candidates parse time : 1ms
C# parse time         : 199ms
candidates check time : 28ms
console write time    : 0ms

[api-updater (non-obsolete-error-filter)] 8/24/2021 12:59:54 PM : Starting /Applications/Unity/Hub/Editor/2020.3.16f1/Unity.app/Contents/Tools/ScriptUpdater/APIUpdater.NonObsoleteApiUpdaterDetector.exe
[api-updater (non-obsolete-error-filter)] 
----------------------------------
jit/startup time      : 41.283ms
moved types parse time: 46ms
candidates parse time : 1ms
C# parse time         : 202ms
candidates check time : 31ms
console write time    : 0ms

